Homework 8 - Seoul Bike Rentals — MLR with tidymodels (HW)
…
There were issues with some computations   A: x1
There were issues with some computations   A: x1

collect_metrics(final_fit)

# A tibble: 2 × 4
  .metric .estimator .estimate .config        
  <chr>   <chr>          <dbl> <chr>          
1 rmse    standard    3611.    pre0_mod0_post0
2 rsq     standard       0.874 pre0_mod0_post0

final_model <- extract_fit_parsnip(final_fit$.workflow[[1]])
broom::tidy(final_model, conf.int = TRUE) %>% arrange(desc(abs(estimate))) %>% head(30)

# A tibble: 30 × 7
   term                 estimate std.error statistic  p.value conf.low conf.high
   <chr>                   <dbl>     <dbl>     <dbl>    <dbl>    <dbl>     <dbl>
 1 dew_point_temp_poly…  218202.    81355.      2.68 7.83e- 3   57925.   378480.
 2 temp_poly_1          -156036.    69272.     -2.25 2.52e- 2 -292509.   -19563.
 3 humidity_poly_1       -69789.    23982.     -2.91 3.96e- 3 -117037.   -22541.
 4 temp_poly_2           -48427.    18083.     -2.68 7.93e- 3  -84053.   -12801.
 5 solar_radiation_pol…   44897.     5776.      7.77 2.38e-13   33518.    56276.
 6 rainfall_poly_1       -30619.     8175.     -3.75 2.27e- 4  -46724.   -14513.
 7 (Intercept)            19203.     1584.     12.1  1.37e-26   16082.    22324.
 8 rainfall_poly_2        17061.     3531.      4.83 2.44e- 6   10104.    24017.
 9 dew_point_temp_poly…   14243.    12567.      1.13 2.58e- 1  -10516.    39001.
10 seasons_Summer          6198.      970.      6.39 8.96e-10    4286.     8109.
# ℹ 20 more rows
